Name	PATRIC ID	Sequence	Code
Bacteroides_thetaiotaomicron_7330	818.23	NZ_CP012937	g
Bacteroides_xylanisolvens_XB1A	657309.4	FP929033	g
Escherichia_coli_K-12_substr_MG1655	511145.12	NC_000913	g
Bacteroides_thetaiotaomicron_VPI-5482	226186.12	"NC_004663, NC_004703"	gp
Lactobacillus_reuteri_DSM_20016	557436.4	NC_009513	g
Bacteroides_vulgatus_ATCC_8482	435590.9	NC_009614	g
Parabacteroides_distasonis_ATCC_8503	435591.13	NC_009615	g
Akkermansia_muciniphila_ATCC_BAA-835	349741.6	NC_010655	g
Escherichia_fergusonii_ATCC_35469	585054.5	NC_011740	g
Eubacterium_eligens_ATCC_27750	515620.4	"NC_012778,NC_012780,NC_012782"	gp
Eubacterium_rectale_ATCC_33656	515619.6	NC_012781	g
Bacteroides_caccae_ATCC_43185	411901.7	NZ_AAVM02000001:NZ_AAVM02000021[accn]	s
Collinsella_aerofaciens_ATCC_25986	411903.6	NZ_AAVN02000001:NZ_AAVN02000025[accn] 	s
Ruminococcus_gnavus_ATCC_29149	411470.6	NZ_AAYG02000001:NZ_AAYG02000043[accn] 	s
Bacteroides_intestinalis_DSM_17393	471870.8	NZ_ABJL02000001:NZ_ABJL02000008[accn] 	s
Bryantella_formatexigens_DSM_14469	478749.5	NZ_ACCL02000001:NZ_ACCL02000058[accn] 	s
Bifidobacterium_angulatum_DSM_20098	518635.7	GG663535:GG663540[accn] 	s
Bifidobacterium_pseudocatenulatum_DSM_20438	547043.19	NZ_ABXX02000001:NZ_ABXX02000036[accn] 	s
Bacteroides_WH2	246787.4	NZ_CP012801	g
Bacteroides_ovatus_ATCC_8483	411476.11	NZ_CP012938	g
Bacteroides_uniformis_ATCC_8492	411479.1	DS362217:DS362249[accn] 	s
Clostridium_bolteae_ATCC_BAA-613	411902.9	DS480659:DS480726[accn] 	s
Clostridium_ramosum_DSM_1402	445974.6	DS499649:DS499660[accn] 	s
Bacteroides_stercoris_ATCC_43183	449673.7	DS499661:DS499677[accn] 	s
Clostridium_scindens_ATCC_35704	411468.9	DS499678:DS499718[accn] 	s
Anaerotruncus_colihominis_DSM_17241	445972.6	DS544167:DS544194[accn] 	s
Streptococcus_infantarius_subsp._infantarius_ATCC_BAA-102	471872.6	DS572674:DS572694[accn] 	s
Clostridium_sporogenes_ATCC_15579	471871.7	DS981517:DS981518[accn] 	s
Clostridium_nexile_DSM_1787	500632.7	(DS995337:DS995353[accn]) OR (DS995602:DS995683[accn]) 	s
Bacteroides_eggerthii_DSM_20697	483216.6	DS995508:DS995527[accn] 	s
Bacteroides_dorei_DSM_17855	483217.6	DS995528:DS995567[accn] 	s
Parabacteroides_johnsonii_DSM_18315	537006.5	DS996440:DS996545[accn] 	s
Bacteroides_cellulosilyticus_DSM_14838	537012.5	EQ973486:EQ973551[accn] 	s
Holdemania_filiformis_DSM_12042	545696.5	GG657551:GG657585[accn] 	s
Subdoligranulum_variabile_DSM_15176	411471.5	GG704769:GG704779[accn] 	s
Clostridium_hylemonae_DSM_15053	553973.6	GG657759:GG657881[accn] 	s
Proteus_penneri_ATCC_35198	471881.3	GG661994:GG662004[accn] 	s
Clostridium_hathewayi_DSM_13479	566550.8	GG667607:GG668320[accn] 	s
Bacteroides_finegoldii_DSM_17565	483215.6	GG688317:GG688349[accn] 	s
Collinsella_intestinalis_DSM_13280	521003.7	GG692710:GG692712[accn] 	s
Fusobacterium_varium_ATCC_27725	469618.3	GL987995:GL988005[accn] 	s
Edwardsiella_tarda_ATCC_23685	500638.3	GG739629:GG739715[accn] 	s
Clostridium_hiranonis_DSM_13275	500633.7	(DS995354:DS995362[accn]) OR (DS995684:DS995700[accn]) 	s
Eubacterium_ventriosum_ATCC_27560	411463.4	DS264262:DS264288[accn] 	s
Ruminococcus_obeum_ATCC_29174	411459.7	DS264289:DS264342[accn] 	s
Ruminococcus_torques_ATCC_27756	411460.6	DS264343:DS264383[accn] 	s
Dorea_longicatena_DSM_13814	411462.6	DS264384:DS264419[accn] 	s
Parabacteroides_merdae_ATCC_43184	411477.4	DS264460:DS264552[accn] 	s
Clostridium_leptum_DSM_753	428125.8	DS480331:DS480351[accn] 	s
Eubacterium_dolichum_DSM_3991	428127.7	DS483460:DS483478[accn] 	s
Faecalibacterium_prausnitzii_M21_2	411485.1	DS483479:DS483503[accn] 	s
Coprococcus_eutactus_ATCC_27759	411474.6	DS483520:DS483542[accn] 	s
Clostridium_bartlettii_DSM_16795	445973.7	DS499552:DS499569[accn] 	s
Clostridium_spiroforme_DSM_1552	428126.7	DS562843:DS562854[accn] 	s
Providencia_stuartii_ATCC_25827	471874.6	DS607633:DS607684[accn] 	s
Bacteroides_plebeius_DSM_17135	484018.6	DS990117:DS990135[accn] 	s
Ruminococcus_lactaris_ATCC_29176	471875.6	DS990163:DS990209[accn] 	s
Collinsella_stercoris_DSM_13279	445975.6	DS995473:DS995507[accn] 	s
Eubacterium_biforme_DSM_3989	518637.5	DS996836:DS996879[accn] 	s
Bacteroides_coprophilus_DSM_18228	547042.5	EQ973628:EQ973700[accn] 	s
Clostridium_asparagiforme_DSM_15981	518636.5	GG657586:GG657677[accn] 	s
Blautia_hydrogenotrophica_DSM_10507	476272.21	GG657678:GG657710[accn] 	s
Coprococcus_comes_ATCC_27758	470146.3	GG662005:GG662017[accn] 	s
Roseburia_intestinalis_L1-82	536231.5	GG692713:GG692814[accn] 	s
Mitsuokella_multacida_DSM_20544	500635.8	GG697141:GG697146[accn] 	s
Blautia_hansenii_DSM_20583	537007.6	GG698588:GG698595[accn] 	s
Providencia_rustigianii_DSM_4541	500637.6	GG703817:GG703851[accn] 	s
Enterobacter_cancerogenus_ATCC_35316	500639.8	GG704863:GG704872[accn] 	s
Providencia_rettgeri_DSM_1131	521000.6	GG705262:GG705293[accn] 	s
Citrobacter_youngae_ATCC_29220	500640.5	GG730299:GG730308[accn] 	s
Clostridium_sp_M62_1	411486.3	GG730309:GG730334[accn] 	s
Lactobacillus_ruminis_ATCC_25644	525362.3	GL833109:GL833115[accn] 	s
Alistipes_indistinctus_YIT_12060	742725.3	JH370371:JH370376[accn] 	s
Clostridium_symbiosum_DSM_934	411472.5	KE992784:KE993053[accn] 	s
Eubacterium_cylindroides_DSM_3983	649755.3	KI270946:KI271071[accn] 	s
Dorea_formicigenerans_ATCC_27755	411461.4	NZ_AAXA02000001:NZ_AAXA02000016[accn] 	s
Bifidobacterium_dentium_ATCC_27678	473819.7	NZ_ABIX02000001:NZ_ABIX02000002[accn] 	s
Anaerococcus_hydrogenalis_DSM_7454	561177.4	NZ_ABXA01000001:NZ_ABXA01000052[accn] 	s
Providencia_alcalifaciens_DSM_30120	520999.6	NZ_ABXW01000001:NZ_ABXW01000079[accn] 	s
Catenibacterium_mitsuokai_DSM_15897	451640.5	NZ_ACCK01000001:NZ_ACCK01000475[accn] 	s
Eubacterium_hallii_DSM_3353	411469.3	NZ_ACEP01000001:NZ_ACEP01000175[accn] 	s
Bifidobacterium_bifidum_DSM_20456	500634.3	NZ_AP012323	g
Bacteroides_thetaiotaomicron_3731	NA	NZ_CVOY01000001:NZ_CVOY01000175[accn] 	s
Blautia_luti_DSM_14534	NA	NA	m
Clostridium_nexile-related_A2-232	NA	NA	m
Clostridium_orbiscindens_DSM_6740	NA	NA	m
Desulfovibrio_piger_GOR1	NA	NA	m
Eubacterium_halii-related_L2-7	NA	NA	m
Eubacterium_plautii_ATCC_29863	411475.3	NZ_JH417617:NZ_JH417858[accn] 	s
Megamonas_funiformis_DSM_19343	NA	NA	m
Ruminococcus_gnavus_GM2_1	NA	NA	m
Victivallis_vadensis_ATCC_BAA-548	340101.3	NA	o
Bifidobacterium_adolescentis_L2-32	411481.5	DS264420:DS264459[accn] 	s
