Name	PATRIC ID	Sequence	Code
Collinsella_aerofaciens_ATCC_25986	411903.6	NZ_AAVN02000001:NZ_AAVN02000025[accn] 	s
Dorea_formicigenerans_ATCC_27755	411461.4	NZ_AAXA02000001:NZ_AAXA02000016[accn] 	s
Bacteroides_dorei_DSM_17855	483217.6	DS995528:DS995567[accn] 	s
Bacteroides_vulgatus_ATCC_8482	435590.9	NC_009614	g
Proteus_penneri_ATCC_35198	471881.3	GG661994:GG662004[accn] 	s
